<svg xmlns="http://www.w3.org/2000/svg" width="95.166" height="27.091" viewBox="0 0 95.166 27.091">
  <g id="Group_184" data-name="Group 184" transform="translate(-60.001 -16.961)">
    <g id="Group_120" data-name="Group 120">
      <path id="Path_43" data-name="Path 43" d="M119.76,35.919c0,2.518-2.18,3.686-4.828,3.686-2.6,0-4.932-1.532-4.932-4.387h2.752c0,1.583.986,2.154,2.336,2.154,1.116,0,1.973-.363,1.973-1.4,0-1.143-1.22-1.221-3.764-2.207-1.688-.649-2.882-1.272-2.882-3.374,0-2.285,2.077-3.5,4.543-3.5,2.57,0,4.62,1.739,4.62,4.1h-2.751a1.7,1.7,0,0,0-1.947-1.869c-.96,0-1.739.467-1.739,1.323,0,1.039,1.116,1.169,3.323,2.025C118.151,33.115,119.76,33.712,119.76,35.919Z" fill="#19194e"/>
      <path id="Path_44" data-name="Path 44" d="M122.356,33.245a6.386,6.386,0,1,1,6.36,6.36A6.209,6.209,0,0,1,122.356,33.245Zm9.942,0a3.567,3.567,0,1,0-7.112,0,3.567,3.567,0,1,0,7.112,0Z" fill="#19194e"/>
      <path id="Path_45" data-name="Path 45" d="M138.009,20.4h2.83v18.9h-2.83Z" fill="#19194e"/>
      <path id="Path_46" data-name="Path 46" d="M146.393,34.1c.13,1.739.883,3.14,3.245,3.14a2.393,2.393,0,0,0,2.57-1.583h2.855c-.337,2.077-2.336,3.946-5.425,3.946-4.075,0-6.048-2.8-6.048-6.36,0-3.634,2.155-6.36,5.97-6.36a5.454,5.454,0,0,1,5.607,5.451,9.916,9.916,0,0,1-.13,1.766Zm0-2.1h6.023a2.793,2.793,0,0,0-2.934-2.985A2.833,2.833,0,0,0,146.393,32Z" fill="#19194e"/>
    </g>
    <g id="Group_146" data-name="Group 146">
      <g id="Group_145" data-name="Group 145">
        <circle id="Ellipse_2521" data-name="Ellipse 2521" cx="5.109" cy="5.109" r="5.109" transform="translate(90.707 32.066)" fill="#e7f943"/>
        <circle id="Ellipse_2522" data-name="Ellipse 2522" cx="5.133" cy="5.133" r="5.133" transform="translate(90.625 31.978)" fill="#e6f944"/>
        <circle id="Ellipse_2523" data-name="Ellipse 2523" cx="5.158" cy="5.158" r="5.158" transform="translate(90.543 31.89)" fill="#e5f845"/>
        <circle id="Ellipse_2524" data-name="Ellipse 2524" cx="5.183" cy="5.183" r="5.183" transform="translate(90.46 31.802)" fill="#e4f846"/>
        <circle id="Ellipse_2525" data-name="Ellipse 2525" cx="5.207" cy="5.207" r="5.207" transform="translate(90.378 31.715)" fill="#e3f847"/>
        <circle id="Ellipse_2526" data-name="Ellipse 2526" cx="5.232" cy="5.232" r="5.232" transform="translate(90.296 31.627)" fill="#e2f848"/>
        <circle id="Ellipse_2527" data-name="Ellipse 2527" cx="5.257" cy="5.257" r="5.257" transform="translate(90.214 31.539)" fill="#e1f749"/>
        <circle id="Ellipse_2528" data-name="Ellipse 2528" cx="5.281" cy="5.281" r="5.281" transform="translate(90.132 31.451)" fill="#e0f74a"/>
        <circle id="Ellipse_2529" data-name="Ellipse 2529" cx="5.306" cy="5.306" r="5.306" transform="translate(90.049 31.363)" fill="#dff74b"/>
        <circle id="Ellipse_2530" data-name="Ellipse 2530" cx="5.331" cy="5.331" r="5.331" transform="translate(89.967 31.275)" fill="#def64c"/>
        <circle id="Ellipse_2531" data-name="Ellipse 2531" cx="5.355" cy="5.355" r="5.355" transform="translate(89.885 31.188)" fill="#ddf64d"/>
        <circle id="Ellipse_2532" data-name="Ellipse 2532" cx="5.38" cy="5.38" r="5.38" transform="translate(89.803 31.1)" fill="#dcf64e"/>
        <circle id="Ellipse_2533" data-name="Ellipse 2533" cx="5.405" cy="5.405" r="5.405" transform="translate(89.721 31.012)" fill="#dbf64f"/>
        <circle id="Ellipse_2534" data-name="Ellipse 2534" cx="5.429" cy="5.429" r="5.429" transform="translate(89.638 30.924)" fill="#daf54f"/>
        <circle id="Ellipse_2535" data-name="Ellipse 2535" cx="5.454" cy="5.454" r="5.454" transform="translate(89.556 30.836)" fill="#d9f550"/>
        <circle id="Ellipse_2536" data-name="Ellipse 2536" cx="5.479" cy="5.479" r="5.479" transform="translate(89.474 30.749)" fill="#d8f551"/>
        <circle id="Ellipse_2537" data-name="Ellipse 2537" cx="5.503" cy="5.503" r="5.503" transform="translate(89.392 30.661)" fill="#d7f452"/>
        <circle id="Ellipse_2538" data-name="Ellipse 2538" cx="5.528" cy="5.528" r="5.528" transform="translate(89.31 30.573)" fill="#d6f453"/>
        <circle id="Ellipse_2539" data-name="Ellipse 2539" cx="5.553" cy="5.553" r="5.553" transform="translate(89.227 30.485)" fill="#d5f454"/>
        <circle id="Ellipse_2540" data-name="Ellipse 2540" cx="5.577" cy="5.577" r="5.577" transform="translate(89.145 30.397)" fill="#d4f355"/>
        <circle id="Ellipse_2541" data-name="Ellipse 2541" cx="5.602" cy="5.602" r="5.602" transform="translate(89.063 30.309)" fill="#d3f356"/>
        <circle id="Ellipse_2542" data-name="Ellipse 2542" cx="5.627" cy="5.627" r="5.627" transform="translate(88.981 30.222)" fill="#d2f357"/>
        <circle id="Ellipse_2543" data-name="Ellipse 2543" cx="5.651" cy="5.651" r="5.651" transform="translate(88.898 30.134)" fill="#d1f358"/>
        <circle id="Ellipse_2544" data-name="Ellipse 2544" cx="5.676" cy="5.676" r="5.676" transform="translate(88.816 30.046)" fill="#d0f259"/>
        <circle id="Ellipse_2545" data-name="Ellipse 2545" cx="5.701" cy="5.701" r="5.701" transform="translate(88.734 29.958)" fill="#cff25a"/>
        <circle id="Ellipse_2546" data-name="Ellipse 2546" cx="5.725" cy="5.725" r="5.725" transform="translate(88.652 29.87)" fill="#cef25b"/>
        <circle id="Ellipse_2547" data-name="Ellipse 2547" cx="5.75" cy="5.75" r="5.75" transform="translate(88.57 29.783)" fill="#cdf15c"/>
        <circle id="Ellipse_2548" data-name="Ellipse 2548" cx="5.775" cy="5.775" r="5.775" transform="translate(88.487 29.695)" fill="#ccf15d"/>
        <circle id="Ellipse_2549" data-name="Ellipse 2549" cx="5.799" cy="5.799" r="5.799" transform="translate(88.405 29.607)" fill="#cbf15e"/>
        <circle id="Ellipse_2550" data-name="Ellipse 2550" cx="5.824" cy="5.824" r="5.824" transform="translate(88.323 29.519)" fill="#caf15f"/>
        <circle id="Ellipse_2551" data-name="Ellipse 2551" cx="5.849" cy="5.849" r="5.849" transform="translate(88.241 29.431)" fill="#c9f060"/>
        <circle id="Ellipse_2552" data-name="Ellipse 2552" cx="5.873" cy="5.873" r="5.873" transform="translate(88.159 29.343)" fill="#c8f061"/>
        <circle id="Ellipse_2553" data-name="Ellipse 2553" cx="5.898" cy="5.898" r="5.898" transform="translate(88.076 29.256)" fill="#c7f062"/>
        <circle id="Ellipse_2554" data-name="Ellipse 2554" cx="5.923" cy="5.923" r="5.923" transform="translate(87.994 29.168)" fill="#c6ef63"/>
        <circle id="Ellipse_2555" data-name="Ellipse 2555" cx="5.947" cy="5.947" r="5.947" transform="translate(87.912 29.08)" fill="#c5ef64"/>
        <circle id="Ellipse_2556" data-name="Ellipse 2556" cx="5.972" cy="5.972" r="5.972" transform="translate(87.83 28.992)" fill="#c4ef65"/>
        <circle id="Ellipse_2557" data-name="Ellipse 2557" cx="5.997" cy="5.997" r="5.997" transform="translate(87.748 28.904)" fill="#c3ef66"/>
        <circle id="Ellipse_2558" data-name="Ellipse 2558" cx="6.021" cy="6.021" r="6.021" transform="translate(87.665 28.817)" fill="#c2ee66"/>
        <circle id="Ellipse_2559" data-name="Ellipse 2559" cx="6.046" cy="6.046" r="6.046" transform="translate(87.583 28.729)" fill="#c1ee67"/>
        <circle id="Ellipse_2560" data-name="Ellipse 2560" cx="6.071" cy="6.071" r="6.071" transform="translate(87.501 28.641)" fill="#c0ee68"/>
        <circle id="Ellipse_2561" data-name="Ellipse 2561" cx="6.095" cy="6.095" r="6.095" transform="translate(87.419 28.553)" fill="#bfed69"/>
        <circle id="Ellipse_2562" data-name="Ellipse 2562" cx="6.12" cy="6.12" r="6.12" transform="translate(87.337 28.465)" fill="#beed6a"/>
        <circle id="Ellipse_2563" data-name="Ellipse 2563" cx="6.145" cy="6.145" r="6.145" transform="translate(87.254 28.377)" fill="#bded6b"/>
        <circle id="Ellipse_2564" data-name="Ellipse 2564" cx="6.169" cy="6.169" r="6.169" transform="translate(87.172 28.29)" fill="#bced6c"/>
        <circle id="Ellipse_2565" data-name="Ellipse 2565" cx="6.194" cy="6.194" r="6.194" transform="translate(87.09 28.202)" fill="#bbec6d"/>
        <circle id="Ellipse_2566" data-name="Ellipse 2566" cx="6.219" cy="6.219" r="6.219" transform="translate(87.008 28.114)" fill="#baec6e"/>
        <circle id="Ellipse_2567" data-name="Ellipse 2567" cx="6.243" cy="6.243" r="6.243" transform="translate(86.926 28.026)" fill="#b9ec6f"/>
        <circle id="Ellipse_2568" data-name="Ellipse 2568" cx="6.268" cy="6.268" r="6.268" transform="translate(86.843 27.938)" fill="#b8eb70"/>
        <circle id="Ellipse_2569" data-name="Ellipse 2569" cx="6.293" cy="6.293" r="6.293" transform="translate(86.761 27.851)" fill="#b7eb71"/>
        <circle id="Ellipse_2570" data-name="Ellipse 2570" cx="6.317" cy="6.317" r="6.317" transform="translate(86.679 27.763)" fill="#b6eb72"/>
        <circle id="Ellipse_2571" data-name="Ellipse 2571" cx="6.342" cy="6.342" r="6.342" transform="translate(86.597 27.675)" fill="#b5ea73"/>
        <circle id="Ellipse_2572" data-name="Ellipse 2572" cx="6.367" cy="6.367" r="6.367" transform="translate(86.515 27.587)" fill="#b4ea74"/>
        <circle id="Ellipse_2573" data-name="Ellipse 2573" cx="6.391" cy="6.391" r="6.391" transform="translate(86.432 27.499)" fill="#b3ea75"/>
        <circle id="Ellipse_2574" data-name="Ellipse 2574" cx="6.416" cy="6.416" r="6.416" transform="translate(86.35 27.411)" fill="#b2ea76"/>
        <circle id="Ellipse_2575" data-name="Ellipse 2575" cx="6.441" cy="6.441" r="6.441" transform="translate(86.268 27.324)" fill="#b1e977"/>
        <circle id="Ellipse_2576" data-name="Ellipse 2576" cx="6.465" cy="6.465" r="6.465" transform="translate(86.186 27.236)" fill="#b0e978"/>
        <circle id="Ellipse_2577" data-name="Ellipse 2577" cx="6.49" cy="6.49" r="6.49" transform="translate(86.104 27.148)" fill="#afe979"/>
        <circle id="Ellipse_2578" data-name="Ellipse 2578" cx="6.515" cy="6.515" r="6.515" transform="translate(86.021 27.06)" fill="#aee87a"/>
        <circle id="Ellipse_2579" data-name="Ellipse 2579" cx="6.539" cy="6.539" r="6.539" transform="translate(85.939 26.972)" fill="#ade87b"/>
        <circle id="Ellipse_2580" data-name="Ellipse 2580" cx="6.564" cy="6.564" r="6.564" transform="translate(85.857 26.885)" fill="#ace87c"/>
        <circle id="Ellipse_2581" data-name="Ellipse 2581" cx="6.589" cy="6.589" r="6.589" transform="translate(85.775 26.797)" fill="#abe87d"/>
        <circle id="Ellipse_2582" data-name="Ellipse 2582" cx="6.614" cy="6.614" r="6.614" transform="translate(85.693 26.709)" fill="#aae77e"/>
        <circle id="Ellipse_2583" data-name="Ellipse 2583" cx="6.638" cy="6.638" r="6.638" transform="translate(85.61 26.621)" fill="#a9e77e"/>
        <circle id="Ellipse_2584" data-name="Ellipse 2584" cx="6.663" cy="6.663" r="6.663" transform="translate(85.528 26.533)" fill="#a8e77f"/>
        <circle id="Ellipse_2585" data-name="Ellipse 2585" cx="6.688" cy="6.688" r="6.688" transform="translate(85.446 26.445)" fill="#a7e680"/>
        <circle id="Ellipse_2586" data-name="Ellipse 2586" cx="6.712" cy="6.712" r="6.712" transform="translate(85.364 26.358)" fill="#a6e681"/>
        <circle id="Ellipse_2587" data-name="Ellipse 2587" cx="6.737" cy="6.737" r="6.737" transform="translate(85.282 26.27)" fill="#a5e682"/>
        <circle id="Ellipse_2588" data-name="Ellipse 2588" cx="6.762" cy="6.762" r="6.762" transform="translate(85.199 26.182)" fill="#a4e683"/>
        <circle id="Ellipse_2589" data-name="Ellipse 2589" cx="6.786" cy="6.786" r="6.786" transform="translate(85.117 26.094)" fill="#a3e584"/>
        <circle id="Ellipse_2590" data-name="Ellipse 2590" cx="6.811" cy="6.811" r="6.811" transform="translate(85.035 26.006)" fill="#a2e585"/>
        <circle id="Ellipse_2591" data-name="Ellipse 2591" cx="6.836" cy="6.836" r="6.836" transform="translate(84.953 25.919)" fill="#a1e586"/>
        <circle id="Ellipse_2592" data-name="Ellipse 2592" cx="6.86" cy="6.86" r="6.86" transform="translate(84.871 25.831)" fill="#a0e487"/>
        <circle id="Ellipse_2593" data-name="Ellipse 2593" cx="6.885" cy="6.885" r="6.885" transform="translate(84.788 25.743)" fill="#9fe488"/>
        <circle id="Ellipse_2594" data-name="Ellipse 2594" cx="6.91" cy="6.91" r="6.91" transform="translate(84.706 25.655)" fill="#9ee489"/>
        <circle id="Ellipse_2595" data-name="Ellipse 2595" cx="6.934" cy="6.934" r="6.934" transform="translate(84.624 25.567)" fill="#9de38a"/>
        <circle id="Ellipse_2596" data-name="Ellipse 2596" cx="6.959" cy="6.959" r="6.959" transform="translate(84.542 25.479)" fill="#9ce38b"/>
        <circle id="Ellipse_2597" data-name="Ellipse 2597" cx="6.984" cy="6.984" r="6.984" transform="translate(84.46 25.392)" fill="#9be38c"/>
        <circle id="Ellipse_2598" data-name="Ellipse 2598" cx="7.008" cy="7.008" r="7.008" transform="translate(84.377 25.304)" fill="#9ae38d"/>
        <circle id="Ellipse_2599" data-name="Ellipse 2599" cx="7.033" cy="7.033" r="7.033" transform="translate(84.295 25.216)" fill="#99e28e"/>
        <circle id="Ellipse_2600" data-name="Ellipse 2600" cx="7.058" cy="7.058" r="7.058" transform="translate(84.213 25.128)" fill="#98e28f"/>
        <circle id="Ellipse_2601" data-name="Ellipse 2601" cx="7.082" cy="7.082" r="7.082" transform="translate(84.131 25.04)" fill="#97e290"/>
        <circle id="Ellipse_2602" data-name="Ellipse 2602" cx="7.107" cy="7.107" r="7.107" transform="translate(84.049 24.953)" fill="#96e191"/>
        <circle id="Ellipse_2603" data-name="Ellipse 2603" cx="7.132" cy="7.132" r="7.132" transform="translate(83.966 24.865)" fill="#95e192"/>
        <circle id="Ellipse_2604" data-name="Ellipse 2604" cx="7.156" cy="7.156" r="7.156" transform="translate(83.884 24.777)" fill="#94e193"/>
        <circle id="Ellipse_2605" data-name="Ellipse 2605" cx="7.181" cy="7.181" r="7.181" transform="translate(83.802 24.689)" fill="#93e194"/>
        <circle id="Ellipse_2606" data-name="Ellipse 2606" cx="7.206" cy="7.206" r="7.206" transform="translate(83.72 24.601)" fill="#92e095"/>
        <circle id="Ellipse_2607" data-name="Ellipse 2607" cx="7.23" cy="7.23" r="7.23" transform="translate(83.637 24.513)" fill="#90e096"/>
        <circle id="Ellipse_2608" data-name="Ellipse 2608" cx="7.255" cy="7.255" r="7.255" transform="translate(83.555 24.426)" fill="#8fe096"/>
        <circle id="Ellipse_2609" data-name="Ellipse 2609" cx="7.28" cy="7.28" r="7.28" transform="translate(83.473 24.338)" fill="#8edf97"/>
        <circle id="Ellipse_2610" data-name="Ellipse 2610" cx="7.304" cy="7.304" r="7.304" transform="translate(83.391 24.25)" fill="#8ddf98"/>
        <circle id="Ellipse_2611" data-name="Ellipse 2611" cx="7.329" cy="7.329" r="7.329" transform="translate(83.309 24.162)" fill="#8cdf99"/>
        <circle id="Ellipse_2612" data-name="Ellipse 2612" cx="7.354" cy="7.354" r="7.354" transform="translate(83.226 24.074)" fill="#8bdf9a"/>
        <circle id="Ellipse_2613" data-name="Ellipse 2613" cx="7.378" cy="7.378" r="7.378" transform="translate(83.144 23.987)" fill="#8ade9b"/>
        <circle id="Ellipse_2614" data-name="Ellipse 2614" cx="7.403" cy="7.403" r="7.403" transform="translate(83.062 23.899)" fill="#89de9c"/>
        <circle id="Ellipse_2615" data-name="Ellipse 2615" cx="7.428" cy="7.428" r="7.428" transform="translate(82.98 23.811)" fill="#88de9d"/>
        <circle id="Ellipse_2616" data-name="Ellipse 2616" cx="7.452" cy="7.452" r="7.452" transform="translate(82.898 23.723)" fill="#87dd9e"/>
        <circle id="Ellipse_2617" data-name="Ellipse 2617" cx="7.477" cy="7.477" r="7.477" transform="translate(82.815 23.635)" fill="#86dd9f"/>
        <circle id="Ellipse_2618" data-name="Ellipse 2618" cx="7.502" cy="7.502" r="7.502" transform="translate(82.733 23.548)" fill="#85dda0"/>
        <circle id="Ellipse_2619" data-name="Ellipse 2619" cx="7.526" cy="7.526" r="7.526" transform="translate(82.651 23.46)" fill="#84dda1"/>
        <circle id="Ellipse_2620" data-name="Ellipse 2620" cx="7.551" cy="7.551" r="7.551" transform="translate(82.569 23.372)" fill="#83dca2"/>
        <circle id="Ellipse_2621" data-name="Ellipse 2621" cx="7.576" cy="7.576" r="7.576" transform="translate(82.487 23.284)" fill="#82dca3"/>
        <circle id="Ellipse_2622" data-name="Ellipse 2622" cx="7.6" cy="7.6" r="7.6" transform="translate(82.404 23.196)" fill="#81dca4"/>
        <circle id="Ellipse_2623" data-name="Ellipse 2623" cx="7.625" cy="7.625" r="7.625" transform="translate(82.322 23.108)" fill="#80dba5"/>
        <circle id="Ellipse_2624" data-name="Ellipse 2624" cx="7.65" cy="7.65" r="7.65" transform="translate(82.24 23.021)" fill="#7fdba6"/>
        <circle id="Ellipse_2625" data-name="Ellipse 2625" cx="7.674" cy="7.674" r="7.674" transform="translate(82.158 22.933)" fill="#7edba7"/>
        <circle id="Ellipse_2626" data-name="Ellipse 2626" cx="7.699" cy="7.699" r="7.699" transform="translate(82.076 22.845)" fill="#7ddaa8"/>
        <circle id="Ellipse_2627" data-name="Ellipse 2627" cx="7.724" cy="7.724" r="7.724" transform="translate(81.993 22.757)" fill="#7cdaa9"/>
        <circle id="Ellipse_2628" data-name="Ellipse 2628" cx="7.748" cy="7.748" r="7.748" transform="translate(81.911 22.669)" fill="#7bdaaa"/>
        <circle id="Ellipse_2629" data-name="Ellipse 2629" cx="7.773" cy="7.773" r="7.773" transform="translate(81.829 22.582)" fill="#7adaab"/>
        <circle id="Ellipse_2630" data-name="Ellipse 2630" cx="7.798" cy="7.798" r="7.798" transform="translate(81.747 22.494)" fill="#79d9ac"/>
        <circle id="Ellipse_2631" data-name="Ellipse 2631" cx="7.822" cy="7.822" r="7.822" transform="translate(81.665 22.406)" fill="#78d9ad"/>
        <circle id="Ellipse_2632" data-name="Ellipse 2632" cx="7.847" cy="7.847" r="7.847" transform="translate(81.582 22.318)" fill="#77d9ad"/>
        <circle id="Ellipse_2633" data-name="Ellipse 2633" cx="7.872" cy="7.872" r="7.872" transform="translate(81.5 22.23)" fill="#76d8ae"/>
        <circle id="Ellipse_2634" data-name="Ellipse 2634" cx="7.896" cy="7.896" r="7.896" transform="translate(81.418 22.142)" fill="#75d8af"/>
        <circle id="Ellipse_2635" data-name="Ellipse 2635" cx="7.921" cy="7.921" r="7.921" transform="translate(81.336 22.055)" fill="#74d8b0"/>
        <circle id="Ellipse_2636" data-name="Ellipse 2636" cx="7.946" cy="7.946" r="7.946" transform="translate(81.254 21.967)" fill="#73d8b1"/>
        <circle id="Ellipse_2637" data-name="Ellipse 2637" cx="7.97" cy="7.97" r="7.97" transform="translate(81.171 21.879)" fill="#72d7b2"/>
        <circle id="Ellipse_2638" data-name="Ellipse 2638" cx="7.995" cy="7.995" r="7.995" transform="translate(81.089 21.791)" fill="#71d7b3"/>
        <circle id="Ellipse_2639" data-name="Ellipse 2639" cx="8.02" cy="8.02" r="8.02" transform="translate(81.007 21.703)" fill="#70d7b4"/>
        <circle id="Ellipse_2640" data-name="Ellipse 2640" cx="8.044" cy="8.044" r="8.044" transform="translate(80.925 21.616)" fill="#6fd6b5"/>
        <circle id="Ellipse_2641" data-name="Ellipse 2641" cx="8.069" cy="8.069" r="8.069" transform="translate(80.843 21.528)" fill="#6ed6b6"/>
        <circle id="Ellipse_2642" data-name="Ellipse 2642" cx="8.094" cy="8.094" r="8.094" transform="translate(80.76 21.44)" fill="#6dd6b7"/>
        <circle id="Ellipse_2643" data-name="Ellipse 2643" cx="8.118" cy="8.118" r="8.118" transform="translate(80.678 21.352)" fill="#6cd6b8"/>
        <circle id="Ellipse_2644" data-name="Ellipse 2644" cx="8.143" cy="8.143" r="8.143" transform="translate(80.596 21.264)" fill="#6bd5b9"/>
        <circle id="Ellipse_2645" data-name="Ellipse 2645" cx="8.168" cy="8.168" r="8.168" transform="translate(80.514 21.176)" fill="#6ad5ba"/>
        <circle id="Ellipse_2646" data-name="Ellipse 2646" cx="8.192" cy="8.192" r="8.192" transform="translate(80.432 21.089)" fill="#69d5bb"/>
        <circle id="Ellipse_2647" data-name="Ellipse 2647" cx="8.217" cy="8.217" r="8.217" transform="translate(80.349 21.001)" fill="#68d4bc"/>
        <circle id="Ellipse_2648" data-name="Ellipse 2648" cx="8.242" cy="8.242" r="8.242" transform="translate(80.267 20.913)" fill="#67d4bd"/>
        <circle id="Ellipse_2649" data-name="Ellipse 2649" cx="8.266" cy="8.266" r="8.266" transform="translate(80.185 20.825)" fill="#66d4be"/>
        <circle id="Ellipse_2650" data-name="Ellipse 2650" cx="8.291" cy="8.291" r="8.291" transform="translate(80.103 20.737)" fill="#65d3bf"/>
        <circle id="Ellipse_2651" data-name="Ellipse 2651" cx="8.316" cy="8.316" r="8.316" transform="translate(80.021 20.65)" fill="#64d3c0"/>
        <circle id="Ellipse_2652" data-name="Ellipse 2652" cx="8.34" cy="8.34" r="8.34" transform="translate(79.938 20.562)" fill="#63d3c1"/>
        <circle id="Ellipse_2653" data-name="Ellipse 2653" cx="8.365" cy="8.365" r="8.365" transform="translate(79.856 20.474)" fill="#62d3c2"/>
        <circle id="Ellipse_2654" data-name="Ellipse 2654" cx="8.39" cy="8.39" r="8.39" transform="translate(79.774 20.386)" fill="#61d2c3"/>
        <circle id="Ellipse_2655" data-name="Ellipse 2655" cx="8.414" cy="8.414" r="8.414" transform="translate(79.692 20.298)" fill="#60d2c4"/>
        <circle id="Ellipse_2656" data-name="Ellipse 2656" cx="8.439" cy="8.439" r="8.439" transform="translate(79.61 20.21)" fill="#5fd2c5"/>
        <circle id="Ellipse_2657" data-name="Ellipse 2657" cx="8.464" cy="8.464" r="8.464" transform="translate(79.527 20.123)" fill="#5ed1c5"/>
        <circle id="Ellipse_2658" data-name="Ellipse 2658" cx="8.488" cy="8.488" r="8.488" transform="translate(79.445 20.035)" fill="#5dd1c6"/>
        <circle id="Ellipse_2659" data-name="Ellipse 2659" cx="8.513" cy="8.513" r="8.513" transform="translate(79.363 19.947)" fill="#5cd1c7"/>
        <circle id="Ellipse_2660" data-name="Ellipse 2660" cx="8.538" cy="8.538" r="8.538" transform="translate(79.281 19.859)" fill="#5bd1c8"/>
        <circle id="Ellipse_2661" data-name="Ellipse 2661" cx="8.562" cy="8.562" r="8.562" transform="translate(79.199 19.771)" fill="#5ad0c9"/>
        <circle id="Ellipse_2662" data-name="Ellipse 2662" cx="8.587" cy="8.587" r="8.587" transform="translate(79.116 19.684)" fill="#59d0ca"/>
        <circle id="Ellipse_2663" data-name="Ellipse 2663" cx="8.612" cy="8.612" r="8.612" transform="translate(79.034 19.596)" fill="#58d0cb"/>
        <circle id="Ellipse_2664" data-name="Ellipse 2664" cx="8.636" cy="8.636" r="8.636" transform="translate(78.952 19.508)" fill="#57cfcc"/>
        <circle id="Ellipse_2665" data-name="Ellipse 2665" cx="8.661" cy="8.661" r="8.661" transform="translate(78.87 19.42)" fill="#56cfcd"/>
        <circle id="Ellipse_2666" data-name="Ellipse 2666" cx="8.686" cy="8.686" r="8.686" transform="translate(78.788 19.332)" fill="#55cfce"/>
        <circle id="Ellipse_2667" data-name="Ellipse 2667" cx="8.71" cy="8.71" r="8.71" transform="translate(78.705 19.244)" fill="#54cfcf"/>
        <circle id="Ellipse_2668" data-name="Ellipse 2668" cx="8.735" cy="8.735" r="8.735" transform="translate(78.623 19.157)" fill="#53ced0"/>
        <circle id="Ellipse_2669" data-name="Ellipse 2669" cx="8.76" cy="8.76" r="8.76" transform="translate(78.541 19.069)" fill="#52ced1"/>
        <circle id="Ellipse_2670" data-name="Ellipse 2670" cx="8.784" cy="8.784" r="8.784" transform="translate(78.459 18.981)" fill="#51ced2"/>
        <circle id="Ellipse_2671" data-name="Ellipse 2671" cx="8.809" cy="8.809" r="8.809" transform="translate(78.377 18.893)" fill="#50cdd3"/>
        <circle id="Ellipse_2672" data-name="Ellipse 2672" cx="8.834" cy="8.834" r="8.834" transform="translate(78.294 18.805)" fill="#4fcdd4"/>
        <circle id="Ellipse_2673" data-name="Ellipse 2673" cx="8.858" cy="8.858" r="8.858" transform="translate(78.212 18.718)" fill="#4ecdd5"/>
        <circle id="Ellipse_2674" data-name="Ellipse 2674" cx="8.883" cy="8.883" r="8.883" transform="translate(78.13 18.63)" fill="#4dcdd6"/>
        <circle id="Ellipse_2675" data-name="Ellipse 2675" cx="8.908" cy="8.908" r="8.908" transform="translate(78.048 18.542)" fill="#4cccd7"/>
        <circle id="Ellipse_2676" data-name="Ellipse 2676" cx="8.932" cy="8.932" r="8.932" transform="translate(77.965 18.454)" fill="#4bccd8"/>
        <circle id="Ellipse_2677" data-name="Ellipse 2677" cx="8.957" cy="8.957" r="8.957" transform="translate(77.883 18.366)" fill="#4accd9"/>
        <circle id="Ellipse_2678" data-name="Ellipse 2678" cx="8.982" cy="8.982" r="8.982" transform="translate(77.801 18.278)" fill="#49cbda"/>
        <circle id="Ellipse_2679" data-name="Ellipse 2679" cx="9.006" cy="9.006" r="9.006" transform="translate(77.719 18.191)" fill="#48cbdb"/>
        <circle id="Ellipse_2680" data-name="Ellipse 2680" cx="9.031" cy="9.031" r="9.031" transform="translate(77.637 18.103)" fill="#47cbdc"/>
        <circle id="Ellipse_2681" data-name="Ellipse 2681" cx="9.056" cy="9.056" r="9.056" transform="translate(77.554 18.015)" fill="#46cadc"/>
        <circle id="Ellipse_2682" data-name="Ellipse 2682" cx="9.08" cy="9.08" r="9.08" transform="translate(77.472 17.927)" fill="#45cadd"/>
        <circle id="Ellipse_2683" data-name="Ellipse 2683" cx="9.105" cy="9.105" r="9.105" transform="translate(77.39 17.839)" fill="#44cade"/>
        <circle id="Ellipse_2684" data-name="Ellipse 2684" cx="9.13" cy="9.13" r="9.13" transform="translate(77.308 17.752)" fill="#43cadf"/>
        <circle id="Ellipse_2685" data-name="Ellipse 2685" cx="9.154" cy="9.154" r="9.154" transform="translate(77.226 17.664)" fill="#42c9e0"/>
        <circle id="Ellipse_2686" data-name="Ellipse 2686" cx="9.179" cy="9.179" r="9.179" transform="translate(77.143 17.576)" fill="#41c9e1"/>
        <circle id="Ellipse_2687" data-name="Ellipse 2687" cx="9.204" cy="9.204" r="9.204" transform="translate(77.061 17.488)" fill="#40c9e2"/>
        <circle id="Ellipse_2688" data-name="Ellipse 2688" cx="9.228" cy="9.228" r="9.228" transform="translate(76.979 17.4)" fill="#3fc8e3"/>
        <circle id="Ellipse_2689" data-name="Ellipse 2689" cx="9.253" cy="9.253" r="9.253" transform="translate(76.897 17.312)" fill="#3ec8e4"/>
        <circle id="Ellipse_2690" data-name="Ellipse 2690" cx="9.278" cy="9.278" r="9.278" transform="translate(76.815 17.225)" fill="#3dc8e5"/>
        <circle id="Ellipse_2691" data-name="Ellipse 2691" cx="9.302" cy="9.302" r="9.302" transform="translate(76.732 17.137)" fill="#3cc8e6"/>
        <circle id="Ellipse_2692" data-name="Ellipse 2692" cx="9.327" cy="9.327" r="9.327" transform="translate(76.65 17.049)" fill="#3bc7e7"/>
        <circle id="Ellipse_2693" data-name="Ellipse 2693" cx="9.352" cy="9.352" r="9.352" transform="translate(76.568 16.961)" fill="#3ac7e8"/>
        <circle id="Ellipse_2694" data-name="Ellipse 2694" cx="9.323" cy="9.323" r="9.323" transform="translate(76.232 17.253)" fill="#39c8e9"/>
        <circle id="Ellipse_2695" data-name="Ellipse 2695" cx="9.293" cy="9.293" r="9.293" transform="translate(75.895 17.544)" fill="#38c9e9"/>
        <circle id="Ellipse_2696" data-name="Ellipse 2696" cx="9.264" cy="9.264" r="9.264" transform="translate(75.559 17.835)" fill="#38caea"/>
        <circle id="Ellipse_2697" data-name="Ellipse 2697" cx="9.235" cy="9.235" r="9.235" transform="translate(75.222 18.127)" fill="#37cbeb"/>
        <circle id="Ellipse_2698" data-name="Ellipse 2698" cx="9.206" cy="9.206" r="9.206" transform="translate(74.886 18.418)" fill="#36cceb"/>
        <circle id="Ellipse_2699" data-name="Ellipse 2699" cx="9.177" cy="9.177" r="9.177" transform="translate(74.549 18.71)" fill="#35cdec"/>
        <circle id="Ellipse_2700" data-name="Ellipse 2700" cx="9.147" cy="9.147" r="9.147" transform="translate(74.213 19.001)" fill="#35ceec"/>
        <circle id="Ellipse_2701" data-name="Ellipse 2701" cx="9.118" cy="9.118" r="9.118" transform="translate(73.876 19.292)" fill="#34cfed"/>
        <circle id="Ellipse_2702" data-name="Ellipse 2702" cx="9.089" cy="9.089" r="9.089" transform="translate(73.54 19.584)" fill="#33d0ee"/>
        <circle id="Ellipse_2703" data-name="Ellipse 2703" cx="9.06" cy="9.06" r="9.06" transform="translate(73.203 19.875)" fill="#32d1ee"/>
        <circle id="Ellipse_2704" data-name="Ellipse 2704" cx="9.03" cy="9.03" r="9.03" transform="translate(72.867 20.166)" fill="#32d2ef"/>
        <circle id="Ellipse_2705" data-name="Ellipse 2705" cx="9.001" cy="9.001" r="9.001" transform="translate(72.53 20.458)" fill="#31d3f0"/>
        <circle id="Ellipse_2706" data-name="Ellipse 2706" cx="8.972" cy="8.972" r="8.972" transform="translate(72.194 20.749)" fill="#30d4f0"/>
        <circle id="Ellipse_2707" data-name="Ellipse 2707" cx="8.943" cy="8.943" r="8.943" transform="translate(71.858 21.041)" fill="#2fd5f1"/>
        <circle id="Ellipse_2708" data-name="Ellipse 2708" cx="8.914" cy="8.914" r="8.914" transform="translate(71.521 21.332)" fill="#2fd6f2"/>
        <circle id="Ellipse_2709" data-name="Ellipse 2709" cx="8.884" cy="8.884" r="8.884" transform="translate(71.185 21.623)" fill="#2ed7f2"/>
        <circle id="Ellipse_2710" data-name="Ellipse 2710" cx="8.855" cy="8.855" r="8.855" transform="translate(70.848 21.915)" fill="#2dd8f3"/>
        <circle id="Ellipse_2711" data-name="Ellipse 2711" cx="8.826" cy="8.826" r="8.826" transform="translate(70.512 22.206)" fill="#2dd8f3"/>
        <circle id="Ellipse_2712" data-name="Ellipse 2712" cx="8.797" cy="8.797" r="8.797" transform="translate(70.175 22.498)" fill="#2cd9f4"/>
        <circle id="Ellipse_2713" data-name="Ellipse 2713" cx="8.768" cy="8.768" r="8.768" transform="translate(69.839 22.789)" fill="#2bdaf5"/>
        <circle id="Ellipse_2714" data-name="Ellipse 2714" cx="8.738" cy="8.738" r="8.738" transform="translate(69.502 23.08)" fill="#2adbf5"/>
        <circle id="Ellipse_2715" data-name="Ellipse 2715" cx="8.709" cy="8.709" r="8.709" transform="translate(69.166 23.372)" fill="#2adcf6"/>
        <circle id="Ellipse_2716" data-name="Ellipse 2716" cx="8.68" cy="8.68" r="8.68" transform="translate(68.829 23.663)" fill="#29ddf7"/>
        <circle id="Ellipse_2717" data-name="Ellipse 2717" cx="8.651" cy="8.651" r="8.651" transform="translate(68.493 23.954)" fill="#28def7"/>
        <circle id="Ellipse_2718" data-name="Ellipse 2718" cx="8.622" cy="8.622" r="8.622" transform="translate(68.156 24.246)" fill="#27dff8"/>
        <circle id="Ellipse_2719" data-name="Ellipse 2719" cx="8.592" cy="8.592" r="8.592" transform="translate(67.82 24.537)" fill="#27e0f9"/>
        <circle id="Ellipse_2720" data-name="Ellipse 2720" cx="8.563" cy="8.563" r="8.563" transform="translate(67.483 24.829)" fill="#26e1f9"/>
        <circle id="Ellipse_2721" data-name="Ellipse 2721" cx="8.534" cy="8.534" r="8.534" transform="translate(67.147 25.12)" fill="#25e2fa"/>
        <circle id="Ellipse_2722" data-name="Ellipse 2722" cx="8.505" cy="8.505" r="8.505" transform="translate(66.811 25.411)" fill="#24e3fb"/>
        <circle id="Ellipse_2723" data-name="Ellipse 2723" cx="8.476" cy="8.476" r="8.476" transform="translate(66.474 25.703)" fill="#24e4fb"/>
        <circle id="Ellipse_2724" data-name="Ellipse 2724" cx="8.446" cy="8.446" r="8.446" transform="translate(66.138 25.994)" fill="#23e5fc"/>
        <circle id="Ellipse_2725" data-name="Ellipse 2725" cx="8.417" cy="8.417" r="8.417" transform="translate(65.801 26.286)" fill="#22e6fc"/>
        <circle id="Ellipse_2726" data-name="Ellipse 2726" cx="8.388" cy="8.388" r="8.388" transform="translate(65.465 26.577)" fill="#21e7fd"/>
        <circle id="Ellipse_2727" data-name="Ellipse 2727" cx="8.359" cy="8.359" r="8.359" transform="translate(65.128 26.868)" fill="#21e8fe"/>
        <circle id="Ellipse_2728" data-name="Ellipse 2728" cx="8.33" cy="8.33" r="8.33" transform="translate(64.792 27.16)" fill="#20e9fe"/>
        <circle id="Ellipse_2729" data-name="Ellipse 2729" cx="8.3" cy="8.3" r="8.3" transform="translate(64.455 27.451)" fill="#1feaff"/>
        <circle id="Ellipse_2730" data-name="Ellipse 2730" cx="8.279" cy="8.279" r="8.279" transform="translate(64.426 27.396)" fill="#1fe9ff"/>
        <circle id="Ellipse_2731" data-name="Ellipse 2731" cx="8.257" cy="8.257" r="8.257" transform="translate(64.397 27.341)" fill="#20e8ff"/>
        <circle id="Ellipse_2732" data-name="Ellipse 2732" cx="8.235" cy="8.235" r="8.235" transform="translate(64.368 27.286)" fill="#20e7ff"/>
        <circle id="Ellipse_2733" data-name="Ellipse 2733" cx="8.214" cy="8.214" r="8.214" transform="translate(64.339 27.231)" fill="#20e6ff"/>
        <circle id="Ellipse_2734" data-name="Ellipse 2734" cx="8.192" cy="8.192" r="8.192" transform="translate(64.31 27.176)" fill="#21e5ff"/>
        <circle id="Ellipse_2735" data-name="Ellipse 2735" cx="8.17" cy="8.17" r="8.17" transform="translate(64.281 27.121)" fill="#21e4ff"/>
        <circle id="Ellipse_2736" data-name="Ellipse 2736" cx="8.149" cy="8.149" r="8.149" transform="translate(64.252 27.066)" fill="#21e3ff"/>
        <circle id="Ellipse_2737" data-name="Ellipse 2737" cx="8.127" cy="8.127" r="8.127" transform="translate(64.222 27.011)" fill="#21e2ff"/>
        <circle id="Ellipse_2738" data-name="Ellipse 2738" cx="8.105" cy="8.105" r="8.105" transform="translate(64.193 26.956)" fill="#22e1ff"/>
        <circle id="Ellipse_2739" data-name="Ellipse 2739" cx="8.084" cy="8.084" r="8.084" transform="translate(64.164 26.901)" fill="#22e0ff"/>
        <circle id="Ellipse_2740" data-name="Ellipse 2740" cx="8.062" cy="8.062" r="8.062" transform="translate(64.135 26.846)" fill="#22dfff"/>
        <circle id="Ellipse_2741" data-name="Ellipse 2741" cx="8.041" cy="8.041" r="8.041" transform="translate(64.106 26.791)" fill="#23deff"/>
        <circle id="Ellipse_2742" data-name="Ellipse 2742" cx="8.019" cy="8.019" r="8.019" transform="translate(64.077 26.736)" fill="#23ddff"/>
        <circle id="Ellipse_2743" data-name="Ellipse 2743" cx="7.997" cy="7.997" r="7.997" transform="translate(64.048 26.681)" fill="#23dcff"/>
        <circle id="Ellipse_2744" data-name="Ellipse 2744" cx="7.976" cy="7.976" r="7.976" transform="translate(64.019 26.626)" fill="#24dbff"/>
        <circle id="Ellipse_2745" data-name="Ellipse 2745" cx="7.954" cy="7.954" r="7.954" transform="translate(63.989 26.571)" fill="#24daff"/>
        <circle id="Ellipse_2746" data-name="Ellipse 2746" cx="7.932" cy="7.932" r="7.932" transform="translate(63.96 26.516)" fill="#24d9ff"/>
        <circle id="Ellipse_2747" data-name="Ellipse 2747" cx="7.911" cy="7.911" r="7.911" transform="translate(63.931 26.461)" fill="#24d8ff"/>
        <circle id="Ellipse_2748" data-name="Ellipse 2748" cx="7.889" cy="7.889" r="7.889" transform="translate(63.902 26.406)" fill="#25d7ff"/>
        <circle id="Ellipse_2749" data-name="Ellipse 2749" cx="7.867" cy="7.867" r="7.867" transform="translate(63.873 26.351)" fill="#25d5ff"/>
        <circle id="Ellipse_2750" data-name="Ellipse 2750" cx="7.846" cy="7.846" r="7.846" transform="translate(63.844 26.296)" fill="#25d4ff"/>
        <circle id="Ellipse_2751" data-name="Ellipse 2751" cx="7.824" cy="7.824" r="7.824" transform="translate(63.815 26.24)" fill="#26d3ff"/>
        <circle id="Ellipse_2752" data-name="Ellipse 2752" cx="7.802" cy="7.802" r="7.802" transform="translate(63.786 26.185)" fill="#26d2ff"/>
        <circle id="Ellipse_2753" data-name="Ellipse 2753" cx="7.781" cy="7.781" r="7.781" transform="translate(63.757 26.13)" fill="#26d1ff"/>
        <circle id="Ellipse_2754" data-name="Ellipse 2754" cx="7.759" cy="7.759" r="7.759" transform="translate(63.727 26.075)" fill="#27d0ff"/>
        <circle id="Ellipse_2755" data-name="Ellipse 2755" cx="7.738" cy="7.738" r="7.738" transform="translate(63.698 26.02)" fill="#27cfff"/>
        <circle id="Ellipse_2756" data-name="Ellipse 2756" cx="7.716" cy="7.716" r="7.716" transform="translate(63.669 25.965)" fill="#27ceff"/>
        <circle id="Ellipse_2757" data-name="Ellipse 2757" cx="7.694" cy="7.694" r="7.694" transform="translate(63.64 25.91)" fill="#27cdff"/>
        <circle id="Ellipse_2758" data-name="Ellipse 2758" cx="7.673" cy="7.673" r="7.673" transform="translate(63.611 25.855)" fill="#28ccff"/>
        <circle id="Ellipse_2759" data-name="Ellipse 2759" cx="7.651" cy="7.651" r="7.651" transform="translate(63.582 25.8)" fill="#28cbff"/>
        <circle id="Ellipse_2760" data-name="Ellipse 2760" cx="7.629" cy="7.629" r="7.629" transform="translate(63.553 25.745)" fill="#28caff"/>
        <circle id="Ellipse_2761" data-name="Ellipse 2761" cx="7.608" cy="7.608" r="7.608" transform="translate(63.524 25.69)" fill="#29c9ff"/>
        <circle id="Ellipse_2762" data-name="Ellipse 2762" cx="7.586" cy="7.586" r="7.586" transform="translate(63.495 25.635)" fill="#29c8ff"/>
        <circle id="Ellipse_2763" data-name="Ellipse 2763" cx="7.564" cy="7.564" r="7.564" transform="translate(63.465 25.58)" fill="#29c7ff"/>
        <circle id="Ellipse_2764" data-name="Ellipse 2764" cx="7.543" cy="7.543" r="7.543" transform="translate(63.436 25.525)" fill="#2ac6ff"/>
        <circle id="Ellipse_2765" data-name="Ellipse 2765" cx="7.521" cy="7.521" r="7.521" transform="translate(63.407 25.47)" fill="#2ac5ff"/>
        <circle id="Ellipse_2766" data-name="Ellipse 2766" cx="7.499" cy="7.499" r="7.499" transform="translate(63.378 25.415)" fill="#2ac4ff"/>
        <circle id="Ellipse_2767" data-name="Ellipse 2767" cx="7.478" cy="7.478" r="7.478" transform="translate(63.349 25.36)" fill="#2ac3ff"/>
        <circle id="Ellipse_2768" data-name="Ellipse 2768" cx="7.456" cy="7.456" r="7.456" transform="translate(63.32 25.305)" fill="#2bc2ff"/>
        <circle id="Ellipse_2769" data-name="Ellipse 2769" cx="7.435" cy="7.435" r="7.435" transform="translate(63.291 25.25)" fill="#2bc1ff"/>
        <circle id="Ellipse_2770" data-name="Ellipse 2770" cx="7.413" cy="7.413" r="7.413" transform="translate(63.262 25.195)" fill="#2bc0ff"/>
        <circle id="Ellipse_2771" data-name="Ellipse 2771" cx="7.391" cy="7.391" r="7.391" transform="translate(63.233 25.14)" fill="#2cbfff"/>
        <circle id="Ellipse_2772" data-name="Ellipse 2772" cx="7.37" cy="7.37" r="7.37" transform="translate(63.203 25.085)" fill="#2cbeff"/>
        <circle id="Ellipse_2773" data-name="Ellipse 2773" cx="7.348" cy="7.348" r="7.348" transform="translate(63.174 25.03)" fill="#2cbdff"/>
        <circle id="Ellipse_2774" data-name="Ellipse 2774" cx="7.326" cy="7.326" r="7.326" transform="translate(63.145 24.975)" fill="#2dbcff"/>
        <circle id="Ellipse_2775" data-name="Ellipse 2775" cx="7.305" cy="7.305" r="7.305" transform="translate(63.116 24.92)" fill="#2dbbff"/>
        <circle id="Ellipse_2776" data-name="Ellipse 2776" cx="7.283" cy="7.283" r="7.283" transform="translate(63.087 24.865)" fill="#2dbaff"/>
        <circle id="Ellipse_2777" data-name="Ellipse 2777" cx="7.261" cy="7.261" r="7.261" transform="translate(63.058 24.81)" fill="#2db9ff"/>
        <circle id="Ellipse_2778" data-name="Ellipse 2778" cx="7.24" cy="7.24" r="7.24" transform="translate(63.029 24.755)" fill="#2eb8ff"/>
        <circle id="Ellipse_2779" data-name="Ellipse 2779" cx="7.218" cy="7.218" r="7.218" transform="translate(63 24.7)" fill="#2eb7ff"/>
        <circle id="Ellipse_2780" data-name="Ellipse 2780" cx="7.196" cy="7.196" r="7.196" transform="translate(62.97 24.645)" fill="#2eb6ff"/>
        <circle id="Ellipse_2781" data-name="Ellipse 2781" cx="7.175" cy="7.175" r="7.175" transform="translate(62.941 24.59)" fill="#2fb5ff"/>
        <circle id="Ellipse_2782" data-name="Ellipse 2782" cx="7.153" cy="7.153" r="7.153" transform="translate(62.912 24.535)" fill="#2fb4ff"/>
        <circle id="Ellipse_2783" data-name="Ellipse 2783" cx="7.132" cy="7.132" r="7.132" transform="translate(62.883 24.48)" fill="#2fb3ff"/>
        <circle id="Ellipse_2784" data-name="Ellipse 2784" cx="7.11" cy="7.11" r="7.11" transform="translate(62.854 24.425)" fill="#30b2ff"/>
        <circle id="Ellipse_2785" data-name="Ellipse 2785" cx="7.088" cy="7.088" r="7.088" transform="translate(62.825 24.37)" fill="#30b1ff"/>
        <circle id="Ellipse_2786" data-name="Ellipse 2786" cx="7.067" cy="7.067" r="7.067" transform="translate(62.796 24.314)" fill="#30b0ff"/>
        <circle id="Ellipse_2787" data-name="Ellipse 2787" cx="7.045" cy="7.045" r="7.045" transform="translate(62.767 24.259)" fill="#30aeff"/>
        <circle id="Ellipse_2788" data-name="Ellipse 2788" cx="7.023" cy="7.023" r="7.023" transform="translate(62.738 24.204)" fill="#31adff"/>
        <circle id="Ellipse_2789" data-name="Ellipse 2789" cx="7.002" cy="7.002" r="7.002" transform="translate(62.708 24.149)" fill="#31acff"/>
        <circle id="Ellipse_2790" data-name="Ellipse 2790" cx="6.98" cy="6.98" r="6.98" transform="translate(62.679 24.094)" fill="#31abff"/>
        <circle id="Ellipse_2791" data-name="Ellipse 2791" cx="6.958" cy="6.958" r="6.958" transform="translate(62.65 24.039)" fill="#32aaff"/>
        <circle id="Ellipse_2792" data-name="Ellipse 2792" cx="6.937" cy="6.937" r="6.937" transform="translate(62.621 23.984)" fill="#32a9ff"/>
        <circle id="Ellipse_2793" data-name="Ellipse 2793" cx="6.915" cy="6.915" r="6.915" transform="translate(62.592 23.929)" fill="#32a8ff"/>
        <circle id="Ellipse_2794" data-name="Ellipse 2794" cx="6.893" cy="6.893" r="6.893" transform="translate(62.563 23.874)" fill="#33a7ff"/>
        <circle id="Ellipse_2795" data-name="Ellipse 2795" cx="6.872" cy="6.872" r="6.872" transform="translate(62.534 23.819)" fill="#33a6ff"/>
        <circle id="Ellipse_2796" data-name="Ellipse 2796" cx="6.85" cy="6.85" r="6.85" transform="translate(62.505 23.764)" fill="#33a5ff"/>
        <circle id="Ellipse_2797" data-name="Ellipse 2797" cx="6.828" cy="6.828" r="6.828" transform="translate(62.476 23.709)" fill="#33a4ff"/>
        <circle id="Ellipse_2798" data-name="Ellipse 2798" cx="6.807" cy="6.807" r="6.807" transform="translate(62.446 23.654)" fill="#34a3ff"/>
        <circle id="Ellipse_2799" data-name="Ellipse 2799" cx="6.785" cy="6.785" r="6.785" transform="translate(62.417 23.599)" fill="#34a2ff"/>
        <circle id="Ellipse_2800" data-name="Ellipse 2800" cx="6.764" cy="6.764" r="6.764" transform="translate(62.388 23.544)" fill="#34a1ff"/>
        <circle id="Ellipse_2801" data-name="Ellipse 2801" cx="6.742" cy="6.742" r="6.742" transform="translate(62.359 23.489)" fill="#35a0ff"/>
        <circle id="Ellipse_2802" data-name="Ellipse 2802" cx="6.72" cy="6.72" r="6.72" transform="translate(62.33 23.434)" fill="#359fff"/>
        <circle id="Ellipse_2803" data-name="Ellipse 2803" cx="6.699" cy="6.699" r="6.699" transform="translate(62.301 23.379)" fill="#359eff"/>
        <circle id="Ellipse_2804" data-name="Ellipse 2804" cx="6.677" cy="6.677" r="6.677" transform="translate(62.272 23.324)" fill="#369dff"/>
        <circle id="Ellipse_2805" data-name="Ellipse 2805" cx="6.655" cy="6.655" r="6.655" transform="translate(62.243 23.269)" fill="#369cff"/>
        <circle id="Ellipse_2806" data-name="Ellipse 2806" cx="6.634" cy="6.634" r="6.634" transform="translate(62.214 23.214)" fill="#369bff"/>
        <circle id="Ellipse_2807" data-name="Ellipse 2807" cx="6.612" cy="6.612" r="6.612" transform="translate(62.184 23.159)" fill="#369aff"/>
        <circle id="Ellipse_2808" data-name="Ellipse 2808" cx="6.59" cy="6.59" r="6.59" transform="translate(62.155 23.104)" fill="#3799ff"/>
        <circle id="Ellipse_2809" data-name="Ellipse 2809" cx="6.569" cy="6.569" r="6.569" transform="translate(62.126 23.049)" fill="#3798ff"/>
        <circle id="Ellipse_2810" data-name="Ellipse 2810" cx="6.547" cy="6.547" r="6.547" transform="translate(62.097 22.994)" fill="#3797ff"/>
        <circle id="Ellipse_2811" data-name="Ellipse 2811" cx="6.525" cy="6.525" r="6.525" transform="translate(62.068 22.939)" fill="#3896ff"/>
        <circle id="Ellipse_2812" data-name="Ellipse 2812" cx="6.504" cy="6.504" r="6.504" transform="translate(62.039 22.884)" fill="#3895ff"/>
        <circle id="Ellipse_2813" data-name="Ellipse 2813" cx="6.482" cy="6.482" r="6.482" transform="translate(62.01 22.829)" fill="#3894ff"/>
        <circle id="Ellipse_2814" data-name="Ellipse 2814" cx="6.461" cy="6.461" r="6.461" transform="translate(61.981 22.774)" fill="#3993ff"/>
        <circle id="Ellipse_2815" data-name="Ellipse 2815" cx="6.439" cy="6.439" r="6.439" transform="translate(61.951 22.719)" fill="#3992ff"/>
        <circle id="Ellipse_2816" data-name="Ellipse 2816" cx="6.417" cy="6.417" r="6.417" transform="translate(61.922 22.664)" fill="#3991ff"/>
        <circle id="Ellipse_2817" data-name="Ellipse 2817" cx="6.396" cy="6.396" r="6.396" transform="translate(61.893 22.609)" fill="#3990ff"/>
        <circle id="Ellipse_2818" data-name="Ellipse 2818" cx="6.374" cy="6.374" r="6.374" transform="translate(61.864 22.554)" fill="#3a8fff"/>
        <circle id="Ellipse_2819" data-name="Ellipse 2819" cx="6.352" cy="6.352" r="6.352" transform="translate(61.835 22.499)" fill="#3a8eff"/>
        <circle id="Ellipse_2820" data-name="Ellipse 2820" cx="6.331" cy="6.331" r="6.331" transform="translate(61.806 22.443)" fill="#3a8dff"/>
        <circle id="Ellipse_2821" data-name="Ellipse 2821" cx="6.309" cy="6.309" r="6.309" transform="translate(61.777 22.388)" fill="#3b8cff"/>
        <circle id="Ellipse_2822" data-name="Ellipse 2822" cx="6.287" cy="6.287" r="6.287" transform="translate(61.748 22.333)" fill="#3b8bff"/>
        <circle id="Ellipse_2823" data-name="Ellipse 2823" cx="6.266" cy="6.266" r="6.266" transform="translate(61.719 22.278)" fill="#3b8aff"/>
        <circle id="Ellipse_2824" data-name="Ellipse 2824" cx="6.244" cy="6.244" r="6.244" transform="translate(61.689 22.223)" fill="#3c89ff"/>
        <circle id="Ellipse_2825" data-name="Ellipse 2825" cx="6.222" cy="6.222" r="6.222" transform="translate(61.66 22.168)" fill="#3c87ff"/>
        <circle id="Ellipse_2826" data-name="Ellipse 2826" cx="6.201" cy="6.201" r="6.201" transform="translate(61.631 22.113)" fill="#3c86ff"/>
        <circle id="Ellipse_2827" data-name="Ellipse 2827" cx="6.179" cy="6.179" r="6.179" transform="translate(61.602 22.058)" fill="#3c85ff"/>
        <circle id="Ellipse_2828" data-name="Ellipse 2828" cx="6.158" cy="6.158" r="6.158" transform="translate(61.573 22.003)" fill="#3d84ff"/>
        <circle id="Ellipse_2829" data-name="Ellipse 2829" cx="6.136" cy="6.136" r="6.136" transform="translate(61.544 21.948)" fill="#3d83ff"/>
        <circle id="Ellipse_2830" data-name="Ellipse 2830" cx="6.114" cy="6.114" r="6.114" transform="translate(61.515 21.893)" fill="#3d82ff"/>
        <circle id="Ellipse_2831" data-name="Ellipse 2831" cx="6.093" cy="6.093" r="6.093" transform="translate(61.486 21.838)" fill="#3e81ff"/>
        <circle id="Ellipse_2832" data-name="Ellipse 2832" cx="6.071" cy="6.071" r="6.071" transform="translate(61.457 21.783)" fill="#3e80ff"/>
        <circle id="Ellipse_2833" data-name="Ellipse 2833" cx="6.049" cy="6.049" r="6.049" transform="translate(61.427 21.728)" fill="#3e7fff"/>
        <circle id="Ellipse_2834" data-name="Ellipse 2834" cx="6.028" cy="6.028" r="6.028" transform="translate(61.398 21.673)" fill="#3f7eff"/>
        <circle id="Ellipse_2835" data-name="Ellipse 2835" cx="6.006" cy="6.006" r="6.006" transform="translate(61.369 21.618)" fill="#3f7dff"/>
        <circle id="Ellipse_2836" data-name="Ellipse 2836" cx="5.984" cy="5.984" r="5.984" transform="translate(61.34 21.563)" fill="#3f7cff"/>
        <circle id="Ellipse_2837" data-name="Ellipse 2837" cx="5.963" cy="5.963" r="5.963" transform="translate(61.311 21.508)" fill="#3f7bff"/>
        <circle id="Ellipse_2838" data-name="Ellipse 2838" cx="5.941" cy="5.941" r="5.941" transform="translate(61.282 21.453)" fill="#407aff"/>
        <circle id="Ellipse_2839" data-name="Ellipse 2839" cx="5.919" cy="5.919" r="5.919" transform="translate(61.253 21.398)" fill="#4079ff"/>
        <circle id="Ellipse_2840" data-name="Ellipse 2840" cx="5.898" cy="5.898" r="5.898" transform="translate(61.224 21.343)" fill="#4078ff"/>
        <circle id="Ellipse_2841" data-name="Ellipse 2841" cx="5.876" cy="5.876" r="5.876" transform="translate(61.195 21.288)" fill="#4177ff"/>
        <circle id="Ellipse_2842" data-name="Ellipse 2842" cx="5.854" cy="5.854" r="5.854" transform="translate(61.165 21.233)" fill="#4176ff"/>
        <circle id="Ellipse_2843" data-name="Ellipse 2843" cx="5.833" cy="5.833" r="5.833" transform="translate(61.136 21.178)" fill="#4175ff"/>
        <circle id="Ellipse_2844" data-name="Ellipse 2844" cx="5.811" cy="5.811" r="5.811" transform="translate(61.107 21.123)" fill="#4274ff"/>
        <circle id="Ellipse_2845" data-name="Ellipse 2845" cx="5.79" cy="5.79" r="5.79" transform="translate(61.078 21.068)" fill="#4273ff"/>
        <circle id="Ellipse_2846" data-name="Ellipse 2846" cx="5.768" cy="5.768" r="5.768" transform="translate(61.049 21.013)" fill="#4272ff"/>
        <circle id="Ellipse_2847" data-name="Ellipse 2847" cx="5.746" cy="5.746" r="5.746" transform="translate(61.02 20.958)" fill="#4271ff"/>
        <circle id="Ellipse_2848" data-name="Ellipse 2848" cx="5.725" cy="5.725" r="5.725" transform="translate(60.991 20.903)" fill="#4370ff"/>
        <circle id="Ellipse_2849" data-name="Ellipse 2849" cx="5.703" cy="5.703" r="5.703" transform="translate(60.962 20.848)" fill="#436fff"/>
        <circle id="Ellipse_2850" data-name="Ellipse 2850" cx="5.681" cy="5.681" r="5.681" transform="translate(60.932 20.793)" fill="#436eff"/>
        <circle id="Ellipse_2851" data-name="Ellipse 2851" cx="5.66" cy="5.66" r="5.66" transform="translate(60.903 20.738)" fill="#446dff"/>
        <circle id="Ellipse_2852" data-name="Ellipse 2852" cx="5.638" cy="5.638" r="5.638" transform="translate(60.874 20.683)" fill="#446cff"/>
        <circle id="Ellipse_2853" data-name="Ellipse 2853" cx="5.616" cy="5.616" r="5.616" transform="translate(60.845 20.628)" fill="#446bff"/>
        <circle id="Ellipse_2854" data-name="Ellipse 2854" cx="5.595" cy="5.595" r="5.595" transform="translate(60.816 20.573)" fill="#456aff"/>
        <circle id="Ellipse_2855" data-name="Ellipse 2855" cx="5.573" cy="5.573" r="5.573" transform="translate(60.787 20.517)" fill="#4569ff"/>
        <circle id="Ellipse_2856" data-name="Ellipse 2856" cx="5.551" cy="5.551" r="5.551" transform="translate(60.758 20.462)" fill="#4568ff"/>
        <circle id="Ellipse_2857" data-name="Ellipse 2857" cx="5.53" cy="5.53" r="5.53" transform="translate(60.729 20.407)" fill="#4567ff"/>
        <circle id="Ellipse_2858" data-name="Ellipse 2858" cx="5.508" cy="5.508" r="5.508" transform="translate(60.7 20.352)" fill="#4666ff"/>
        <circle id="Ellipse_2859" data-name="Ellipse 2859" cx="5.487" cy="5.487" r="5.487" transform="translate(60.67 20.297)" fill="#4665ff"/>
        <circle id="Ellipse_2860" data-name="Ellipse 2860" cx="5.465" cy="5.465" r="5.465" transform="translate(60.641 20.242)" fill="#4664ff"/>
        <circle id="Ellipse_2861" data-name="Ellipse 2861" cx="5.443" cy="5.443" r="5.443" transform="translate(60.612 20.187)" fill="#4763ff"/>
        <circle id="Ellipse_2862" data-name="Ellipse 2862" cx="5.422" cy="5.422" r="5.422" transform="translate(60.583 20.132)" fill="#4762ff"/>
        <circle id="Ellipse_2863" data-name="Ellipse 2863" cx="5.4" cy="5.4" r="5.4" transform="translate(60.554 20.077)" fill="#4760ff"/>
        <circle id="Ellipse_2864" data-name="Ellipse 2864" cx="5.378" cy="5.378" r="5.378" transform="translate(60.525 20.022)" fill="#485fff"/>
        <circle id="Ellipse_2865" data-name="Ellipse 2865" cx="5.357" cy="5.357" r="5.357" transform="translate(60.496 19.967)" fill="#485eff"/>
        <circle id="Ellipse_2866" data-name="Ellipse 2866" cx="5.335" cy="5.335" r="5.335" transform="translate(60.467 19.912)" fill="#485dff"/>
        <circle id="Ellipse_2867" data-name="Ellipse 2867" cx="5.313" cy="5.313" r="5.313" transform="translate(60.438 19.857)" fill="#485cff"/>
        <circle id="Ellipse_2868" data-name="Ellipse 2868" cx="5.292" cy="5.292" r="5.292" transform="translate(60.408 19.802)" fill="#495bff"/>
        <circle id="Ellipse_2869" data-name="Ellipse 2869" cx="5.27" cy="5.27" r="5.27" transform="translate(60.379 19.747)" fill="#495aff"/>
        <circle id="Ellipse_2870" data-name="Ellipse 2870" cx="5.248" cy="5.248" r="5.248" transform="translate(60.35 19.692)" fill="#4959ff"/>
        <circle id="Ellipse_2871" data-name="Ellipse 2871" cx="5.227" cy="5.227" r="5.227" transform="translate(60.321 19.637)" fill="#4a58ff"/>
        <circle id="Ellipse_2872" data-name="Ellipse 2872" cx="5.205" cy="5.205" r="5.205" transform="translate(60.292 19.582)" fill="#4a57ff"/>
        <circle id="Ellipse_2873" data-name="Ellipse 2873" cx="5.184" cy="5.184" r="5.184" transform="translate(60.263 19.527)" fill="#4a56ff"/>
        <circle id="Ellipse_2874" data-name="Ellipse 2874" cx="5.162" cy="5.162" r="5.162" transform="translate(60.234 19.472)" fill="#4b55ff"/>
        <circle id="Ellipse_2875" data-name="Ellipse 2875" cx="5.14" cy="5.14" r="5.14" transform="translate(60.205 19.417)" fill="#4b54ff"/>
        <circle id="Ellipse_2876" data-name="Ellipse 2876" cx="5.119" cy="5.119" r="5.119" transform="translate(60.176 19.362)" fill="#4b53ff"/>
        <circle id="Ellipse_2877" data-name="Ellipse 2877" cx="5.097" cy="5.097" r="5.097" transform="translate(60.146 19.307)" fill="#4b52ff"/>
        <circle id="Ellipse_2878" data-name="Ellipse 2878" cx="5.075" cy="5.075" r="5.075" transform="translate(60.117 19.252)" fill="#4c51ff"/>
        <circle id="Ellipse_2879" data-name="Ellipse 2879" cx="5.054" cy="5.054" r="5.054" transform="translate(60.088 19.197)" fill="#4c50ff"/>
        <circle id="Ellipse_2880" data-name="Ellipse 2880" cx="5.032" cy="5.032" r="5.032" transform="translate(60.059 19.142)" fill="#4c4fff"/>
        <circle id="Ellipse_2881" data-name="Ellipse 2881" cx="5.01" cy="5.01" r="5.01" transform="translate(60.03 19.087)" fill="#4d4eff"/>
        <circle id="Ellipse_2882" data-name="Ellipse 2882" cx="4.989" cy="4.989" r="4.989" transform="translate(60.001 19.032)" fill="#4d4dff"/>
      </g>
    </g>
  </g>
</svg>
